<svg xmlns="http://www.w3.org/2000/svg" viewBox="0 0 206 193" width="206" height="193">
	<defs>
		<clipPath clipPathUnits="userSpaceOnUse" id="cp1">
			<path d="M-274.81,1132.63h750v-1334h-750z" />
		</clipPath>
	</defs>
	<style>
		tspan { white-space:pre }
		.shp0 { fill: #f73267 } 
	</style>
	<g id="@ Screens">
		<g id="6" clip-path="url(#cp1)">
			<g id="@ Content">
				<g id="profile_image">
					<path id="icon_navbar_camera" class="shp0" d="M100 73.9C94.48 73.9 90 78.38 90 83.9C90 89.42 94.48 93.89 100 93.89C105.52 93.89 110 89.42 110 83.9C110 78.38 105.52 73.9 100 73.9ZM127.18 63.51L119.03 63.51C117.9 63.51 116.7 62.64 116.34 61.58L114.23 55.25C113.88 54.19 112.67 53.32 111.55 53.32L88.45 53.32C87.33 53.32 86.12 54.19 85.77 55.26L83.66 61.58C83.3 62.64 82.1 63.51 80.97 63.51L72.82 63.51C69.08 63.51 66.03 66.57 66.03 70.31L66.03 100.88C66.03 104.62 69.08 107.68 72.82 107.68L127.18 107.68C130.92 107.68 133.97 104.62 133.97 100.88L133.97 70.31C133.97 66.57 130.92 63.51 127.18 63.51ZM100 100.88C90.62 100.88 83.01 93.28 83.01 83.9C83.01 74.52 90.62 66.91 100 66.91C109.38 66.91 116.99 74.52 116.99 83.9C116.99 93.28 109.38 100.88 100 100.88ZM75.85 75.8C73.99 75.8 72.48 74.3 72.48 72.43C72.48 70.57 73.99 69.06 75.85 69.06C77.72 69.06 79.22 70.57 79.22 72.43C79.22 74.3 77.71 75.8 75.85 75.8Z" />
				</g>
			</g>
		</g>
	</g>
</svg>