<svg xmlns="http://www.w3.org/2000/svg" viewBox="0 0 64 52" width="64" height="52">
	<style>
		tspan { white-space:pre }
		.shp0 { fill: #9fb6d0 } 
	</style>
	<path id="comment_icon copy" class="shp0" d="M11.32 51.98L11.38 40.08C4.77 35.75 1 29.54 1 22.94C1 10.3 14.91 0.02 32 0.02C49.09 0.02 63 10.3 63 22.94C63 35.58 49.09 45.86 32 45.86C29.61 45.86 27.18 45.64 24.78 45.21L11.32 51.98ZM32 3.02C16.56 3.02 4 11.96 4 22.94C4 28.71 7.53 34.2 13.67 37.98L14.39 38.43L14.34 47.1L24.33 42.08L24.83 42.17C27.22 42.63 29.63 42.86 32 42.86C47.44 42.86 60 33.92 60 22.94C60 11.96 47.44 3.02 32 3.02Z" />
</svg>